{
	"minWordSizefor1Typo": 4,
	"minWordSizefor2Typos": 8,
	"hitsPerPage": 10,
	"maxValuesPerFacet": 100,
	"version": 2,
	"searchableAttributes": [],
	"attributesToRetrieve": null,
	"unretrievableAttributes": null,
	"optionalWords": null,
	"attributesForFaceting": null,
	"attributesToSnippet": null,
	"attributesToHighlight": [],
	"paginationLimitedTo": 150,
	"attributeForDistinct": null,
	"exactOnSingleWordQuery": "attribute",
	"ranking": [
		"typo",
		"geo",
		"words",
		"filters",
		"proximity",
		"attribute",
		"exact",
		"custom"
	],
	"customRanking": [],
	"separatorsToIndex": "",
	"removeWordsIfNoResults": "none",
	"queryType": "prefixLast",
	"highlightPreTag": "<em>",
	"highlightPostTag": "</em>",
	"snippetEllipsisText": "",
	"alternativesAsExact": [
		"ignorePlurals",
		"singleWordSynonym"
	],
	"numericAttributesForFiltering": null
}